<?xml version="1.0" encoding="UTF-8" standalone="no"?>
<!-- Generator: Adobe Illustrator 19.0.0, SVG Export Plug-In . SVG Version: 6.00 Build 0)  -->

<svg
   xmlns:dc="http://purl.org/dc/elements/1.1/"
   xmlns:cc="http://creativecommons.org/ns#"
   xmlns:rdf="http://www.w3.org/1999/02/22-rdf-syntax-ns#"
   xmlns:svg="http://www.w3.org/2000/svg"
   xmlns="http://www.w3.org/2000/svg"
   xmlns:sodipodi="http://sodipodi.sourceforge.net/DTD/sodipodi-0.dtd"
   xmlns:inkscape="http://www.inkscape.org/namespaces/inkscape"
   version="1.1"
   id="Layer_1"
   x="0px"
   y="0px"
   viewBox="0 0 512 512"
   style="enable-background:new 0 0 512 512;"
   xml:space="preserve"
   sodipodi:docname="arrowPurple.svg"
   inkscape:version="0.92.2 (5c3e80d, 2017-08-06)"><metadata
     id="metadata47"><rdf:RDF><cc:Work
         rdf:about=""><dc:format>image/svg+xml</dc:format><dc:type
           rdf:resource="http://purl.org/dc/dcmitype/StillImage" /><dc:title></dc:title></cc:Work></rdf:RDF></metadata><defs
     id="defs45" /><sodipodi:namedview
     pagecolor="#ffffff"
     bordercolor="#666666"
     borderopacity="1"
     objecttolerance="10"
     gridtolerance="10"
     guidetolerance="10"
     inkscape:pageopacity="0"
     inkscape:pageshadow="2"
     inkscape:window-width="1366"
     inkscape:window-height="705"
     id="namedview43"
     showgrid="false"
     inkscape:zoom="0.4609375"
     inkscape:cx="-544.54238"
     inkscape:cy="256"
     inkscape:window-x="1912"
     inkscape:window-y="-8"
     inkscape:window-maximized="1"
     inkscape:current-layer="Layer_1" /><g
     id="g10"
     style="fill:#af03aa;fill-opacity:1"><polygon
       style="fill:#af03aa;fill-opacity:1"
       points="300.138,317.793 300.138,211.862 211.862,211.862 211.862,317.793 114.759,317.793 256,512    397.241,317.793  "
       id="polygon2" /><path
       style="fill:#af03aa;fill-opacity:1"
       d="M229.517,176.552h52.966c9.71,0,17.655-7.945,17.655-17.655s-7.945-17.655-17.655-17.655h-52.966   c-9.71,0-17.655,7.945-17.655,17.655S219.807,176.552,229.517,176.552"
       id="path4" /><path
       style="fill:#af03aa;fill-opacity:1"
       d="M229.517,105.931h52.966c9.71,0,17.655-7.945,17.655-17.655s-7.945-17.655-17.655-17.655h-52.966   c-9.71,0-17.655,7.945-17.655,17.655S219.807,105.931,229.517,105.931"
       id="path6" /><path
       style="fill:#af03aa;fill-opacity:1"
       d="M229.517,35.31h52.966c9.71,0,17.655-7.945,17.655-17.655S292.193,0,282.483,0h-52.966   c-9.71,0-17.655,7.945-17.655,17.655S219.807,35.31,229.517,35.31"
       id="path8" /></g><g
     id="g12" /><g
     id="g14" /><g
     id="g16" /><g
     id="g18" /><g
     id="g20" /><g
     id="g22" /><g
     id="g24" /><g
     id="g26" /><g
     id="g28" /><g
     id="g30" /><g
     id="g32" /><g
     id="g34" /><g
     id="g36" /><g
     id="g38" /><g
     id="g40" /></svg>